Part2/simulation/qsim/Part2.msim.vcd
$comment
	File created using the following command:
		vcd file Part2.msim.vcd -direction
$end
$date
	Tue Nov 06 15:28:54 2018
$end
$version
	ModelSim Version 10.5b
$end
$timescale
	1ps
$end

$scope module part2_vhd_vec_tst $end
$var wire 1 ! LEDR [1] $end
$var wire 1 " LEDR [0] $end
$var wire 1 # SW [1] $end
$var wire 1 $ SW [0] $end

$scope module i1 $end
$var wire 1 % gnd $end
$var wire 1 & vcc $end
$var wire 1 ' unknown $end
$var wire 1 ( devoe $end
$var wire 1 ) devclrn $end
$var wire 1 * devpor $end
$var wire 1 + ww_devoe $end
$var wire 1 , ww_devclrn $end
$var wire 1 - ww_devpor $end
$var wire 1 . ww_SW [1] $end
$var wire 1 / ww_SW [0] $end
$var wire 1 0 ww_LEDR [1] $end
$var wire 1 1 ww_LEDR [0] $end
$var wire 1 2 \LEDR[0]~output_o\ $end
$var wire 1 3 \LEDR[1]~output_o\ $end
$var wire 1 4 \SW[1]~input_o\ $end
$var wire 1 5 \comb_3|S~combout\ $end
$var wire 1 6 \SW[0]~input_o\ $end
$var wire 1 7 \comb_3|S_g~combout\ $end
$var wire 1 8 \comb_3|R~combout\ $end
$var wire 1 9 \comb_3|R_g~combout\ $end
$var wire 1 : \comb_3|Qb~combout\ $end
$var wire 1 ; \comb_3|Qa~combout\ $end
$upscope $end
$upscope $end
$enddefinitions $end
#0
$dumpvars
0%
1&
x'
1(
1)
1*
1+
1,
1-
x2
03
04
05
06
07
18
09
x:
x;
0#
0$
0.
0/
00
x1
0!
x"
$end
#2000
1$
1/
16
19
1:
0;
02
01
0"
#2036
1#
1.
14
15
08
09
17
1;
0:
12
11
1"
#3596
0#
0.
04
05
18
19
07
1:
0;
02
01
0"
#4000
0$
0/
06
09
#6000
1$
1/
16
19
#6036
1#
1.
14
15
08
09
17
1;
0:
12
11
1"
#7596
0#
0.
04
05
18
19
07
1:
0;
02
01
0"
#8000
1#
0$
0/
1.
14
06
09
15
08
#9049
0#
0.
04
05
18
#10000
1$
1/
16
19
#10436
1#
1.
14
15
08
09
17
1;
0:
12
11
1"
#11715
0#
0.
04
05
18
19
07
1:
0;
02
01
0"
#12000
0$
0/
06
09
#13102
1#
1.
14
15
08
#14000
1$
1/
16
17
1;
0:
12
11
1"
#14381
0#
0.
04
05
18
19
07
1:
0;
02
01
0"
#15768
1#
1.
14
15
08
09
17
1;
0:
12
11
1"
#16000
0#
0$
0/
0.
04
06
07
05
18
#16576
1#
1.
14
15
08
#17736
0#
0.
04
05
18
#18000
1$
1/
16
19
1:
0;
02
01
0"
#18576
1#
1.
14
15
08
09
17
1;
0:
12
11
1"
#19736
0#
0.
04
05
18
19
07
1:
0;
02
01
0"
