Part3/simulation/qsim/Part3.msim.vcd
$comment
	File created using the following command:
		vcd file Part3.msim.vcd -direction
$end
$date
	Tue Nov 06 15:22:17 2018
$end
$version
	ModelSim Version 10.5b
$end
$timescale
	1ps
$end

$scope module part3_vhd_vec_tst $end
$var wire 1 ! LEDR [1] $end
$var wire 1 " LEDR [0] $end
$var wire 1 # SW [1] $end
$var wire 1 $ SW [0] $end

$scope module i1 $end
$var wire 1 % gnd $end
$var wire 1 & vcc $end
$var wire 1 ' unknown $end
$var wire 1 ( devoe $end
$var wire 1 ) devclrn $end
$var wire 1 * devpor $end
$var wire 1 + ww_devoe $end
$var wire 1 , ww_devclrn $end
$var wire 1 - ww_devpor $end
$var wire 1 . ww_SW [1] $end
$var wire 1 / ww_SW [0] $end
$var wire 1 0 ww_LEDR [1] $end
$var wire 1 1 ww_LEDR [0] $end
$var wire 1 2 \LEDR[0]~output_o\ $end
$var wire 1 3 \LEDR[1]~output_o\ $end
$var wire 1 4 \SW[1]~input_o\ $end
$var wire 1 5 \comb_3|comb_3|S~combout\ $end
$var wire 1 6 \SW[0]~input_o\ $end
$var wire 1 7 \comb_3|comb_3|S_g~combout\ $end
$var wire 1 8 \comb_3|comb_3|R~combout\ $end
$var wire 1 9 \comb_3|comb_3|R_g~combout\ $end
$var wire 1 : \comb_3|comb_3|Qb~combout\ $end
$var wire 1 ; \comb_3|comb_3|Qa~combout\ $end
$var wire 1 < \comb_3|comb_5|S~combout\ $end
$var wire 1 = \comb_3|comb_5|S_g~combout\ $end
$var wire 1 > \comb_3|comb_5|R~combout\ $end
$var wire 1 ? \comb_3|comb_5|R_g~combout\ $end
$var wire 1 @ \comb_3|comb_5|Qb~combout\ $end
$var wire 1 A \comb_3|comb_5|Qa~combout\ $end
$upscope $end
$upscope $end
$enddefinitions $end
#0
$dumpvars
0%
1&
x'
1(
1)
1*
1+
1,
1-
x2
03
14
15
06
17
08
09
0:
1;
1<
0=
0>
0?
x@
xA
1#
0$
0!
x"
1.
0/
00
x1
$end
#23596
0#
0.
04
05
18
19
07
1:
0;
0<
1>
#633596
1#
1.
14
15
08
09
17
1;
0:
1<
0>
#1023596
0#
0.
04
05
18
19
07
1:
0;
0<
1>
#1633596
1#
1.
14
15
08
09
17
1;
0:
1<
0>
#2000000
1$
1/
16
07
1=
1A
0@
12
11
1"
#2006381
0#
0.
04
05
18
#2353048
1#
1.
14
15
08
#2673047
0#
0.
04
05
18
#3019714
1#
1.
14
15
08
#3339713
0#
0.
04
05
18
#3686380
1#
1.
14
15
08
#4000000
0$
0/
06
17
0=
#4013736
0#
0.
04
05
18
19
07
1:
0;
0<
1>
#4433736
1#
1.
14
15
08
09
17
1;
0:
1<
0>
#5013736
0#
0.
04
05
18
19
07
1:
0;
0<
1>
#5433736
1#
1.
14
15
08
09
17
1;
0:
1<
0>
#6000000
1$
1/
16
07
1=
#6016253
0#
0.
04
05
18
#6192920
1#
1.
14
15
08
#6349586
0#
0.
04
05
18
#6526253
1#
1.
14
15
08
#6682919
0#
0.
04
05
18
#6859586
1#
1.
14
15
08
#7024132
0#
0.
04
05
18
#8000000
0$
0/
06
19
0=
1:
0;
0<
1>
#8284132
1#
1.
14
15
08
09
17
1;
0:
1<
0>
#9016600
0#
0.
04
05
18
19
07
1:
0;
0<
1>
#9696600
1#
1.
14
15
08
09
17
1;
0:
1<
0>
#10000000
1$
1/
16
07
1=
#10009141
0#
0.
04
05
18
#10442474
1#
1.
14
15
08
#10675807
0#
0.
04
05
18
#11109140
1#
1.
14
15
08
#11342473
0#
0.
04
05
18
#11775806
1#
1.
14
15
08
#12000000
0$
0/
06
17
0=
#12009670
0#
0.
04
05
18
19
07
1:
0;
0<
1>
#12469670
1#
1.
14
15
08
09
17
1;
0:
1<
0>
#12676336
0#
0.
04
05
18
19
07
1:
0;
0<
1>
#13136336
1#
1.
14
15
08
09
17
1;
0:
1<
0>
#13343002
0#
0.
04
05
18
19
07
1:
0;
0<
1>
#13803002
1#
1.
14
15
08
09
17
1;
0:
1<
0>
#14000000
1$
1/
16
07
1=
#14024440
0#
0.
04
05
18
#14724440
1#
1.
14
15
08
#15028691
0#
0.
04
05
18
#15343691
1#
1.
14
15
08
#15528691
0#
0.
04
05
18
#15843691
1#
1.
14
15
08
